<svg xmlns="http://www.w3.org/2000/svg" xmlns:xlink="http://www.w3.org/1999/xlink" viewBox="0 0 40 40" >
    <polyline points="5 20, 20 5, 35 20" fill="none" stroke-linejoin="round" stroke-width="4" stroke="black" stroke-linecap="round" />
    <polyline points="10 22, 10 35, 20 35, 30 35, 30 22" fill="none" stroke-linejoin="round" stroke-width="3" stroke="black" stroke-linecap="round" />
</svg>
